evotech12/3858044272/console/logs/rusEFI_trigger_log_2025-07-20_11_26_39_381.vcd
$date
	Sun Jul 20 11:26:39 BRT 2025
$end
$version
        1.0
$end
$timescale
        1ps
$end
$scope module test $end
$var wire 1 t PRI_TRG $end
$var wire 1 s SEC_TRG $end
$var wire 1 r TRG $end
$var wire 1 y SYNC $end
$var wire 1 c COIL $end
$var wire 1 i INJ $end
$upscope $end
$enddefinitions $end
$dumpvars
#8214621
0t
0s
0r
1y
0c
0i
#8215242
1t
0s
0r
1y
0c
0i
#8215794
0t
0s
0r
1y
0c
0i
#8216407
1t
0s
0r
1y
0c
0i
#8216960
0t
0s
0r
1y
0c
0i
#8217575
1t
0s
0r
1y
0c
0i
#8218116
0t
0s
0r
1y
0c
0i
#8218712
1t
0s
0r
1y
0c
0i
#8219257
0t
0s
0r
1y
0c
0i
#8219874
1t
0s
0r
1y
0c
0i
#8220422
0t
0s
0r
1y
0c
1i
#8221031
1t
0s
0r
1y
0c
1i
#8221571
0t
0s
0r
1y
0c
1i
#8222162
1t
0s
0r
1y
0c
1i
#8222710
0t
0s
0r
1y
0c
1i
#8223322
1t
0s
0r
1y
0c
1i
#8223870
0t
0s
0r
1y
0c
1i
#8224489
1t
0s
0r
1y
0c
1i
#8225028
0t
0s
0r
1y
0c
1i
#8225628
1t
0s
0r
1y
1c
1i
#8226178
0t
0s
0r
1y
1c
0i
#8226790
1t
0s
0r
1y
1c
0i
#8227343
0t
0s
0r
1y
1c
0i
#8227953
1t
0s
0r
1y
1c
0i
#8228509
0t
0s
0r
1y
1c
0i
#8229115
1t
0s
0r
1y
1c
0i
#8229668
0t
0s
0r
1y
1c
0i
#8230282
1t
0s
0r
1y
1c
0i
#8230852
0t
0s
0r
1y
1c
0i
#8231470
1t
0s
0r
1y
1c
0i
#8232023
0t
0s
0r
1y
1c
0i
#8232627
1t
0s
0r
1y
1c
0i
#8233187
0t
0s
0r
1y
1c
0i
#8233804
1t
0s
0r
1y
1c
0i
#8234365
0t
0s
0r
1y
1c
0i
#8234976
1t
0s
0r
1y
1c
0i
#8235529
0t
0s
0r
1y
1c
0i
#8236122
1t
0s
0r
1y
1c
0i
#8236679
0t
0s
0r
1y
1c
0i
#8237285
1t
0s
0r
1y
1c
0i
#8237834
0t
0s
0r
1y
1c
0i
#8238427
1t
0s
0r
1y
1c
0i
#8238966
0t
0s
0r
1y
1c
0i
#8239541
1t
0s
0r
1y
1c
0i
#8240076
0t
0s
0r
1y
1c
0i
#8240662
1t
0s
0r
1y
1c
0i
#8241197
0t
0s
0r
1y
1c
0i
#8241777
1t
0s
0r
1y
1c
0i
#8242302
0t
0s
0r
1y
1c
0i
#8242866
1t
0s
0r
1y
1c
0i
#8243382
0t
0s
0r
1y
1c
0i
#8243959
1t
0s
0r
1y
1c
0i
#8244480
0t
0s
0r
1y
1c
0i
#8245053
1t
0s
0r
1y
1c
0i
#8245567
0t
0s
0r
1y
1c
0i
#8246130
1t
0s
0r
1y
1c
0i
#8246640
0t
0s
0r
1y
1c
0i
#8247207
1t
0s
0r
1y
1c
0i
#8247727
0t
0s
0r
1y
1c
1i
#8248296
1t
0s
0r
1y
1c
1i
#8248807
0t
0s
0r
1y
1c
1i
#8249363
1t
0s
0r
1y
1c
1i
#8249879
0t
0s
0r
1y
1c
1i
#8250453
1t
0s
0r
1y
1c
1i
#8250973
0t
0s
0r
1y
1c
1i
#8251546
1t
0s
0r
1y
1c
1i
#8252061
0t
0s
0r
1y
1c
1i
#8252628
1t
0s
0r
1y
1c
1i
#8253149
0t
0s
0r
1y
1c
0i
#8253717
1t
0s
0r
1y
1c
0i
#8254236
0t
0s
0r
1y
1c
0i
#8254819
1t
0s
0r
1y
1c
0i
#8255337
0t
0s
0r
1y
1c
0i
#8255909
1t
0s
0r
1y
1c
0i
#8256433
0t
0s
0r
1y
1c
0i
#8257011
1t
0s
0r
1y
1c
0i
#8257543
0t
0s
0r
1y
1c
0i
#8258129
1t
0s
0r
1y
1c
0i
#8258652
0t
0s
0r
1y
1c
0i
#8259229
1t
0s
0r
1y
1c
0i
#8259760
0t
0s
0r
1y
1c
0i
#8260336
1t
0s
0r
1y
1c
0i
#8260852
0t
0s
0r
1y
1c
0i
#8261437
1t
0s
0r
1y
1c
0i
#8261947
0t
0s
0r
1y
1c
0i
#8262516
1t
0s
0r
1y
1c
0i
#8263036
0t
0s
0r
1y
1c
0i
#8263595
1t
0s
0r
1y
1c
0i
#8264117
0t
0s
0r
1y
1c
0i
#8264665
1t
0s
0r
1y
1c
0i
#8265145
0t
0s
0r
1y
1c
0i
#8265681
1t
0s
0r
1y
1c
0i
#8267260
0t
0s
0r
1y
1c
0i
#8268812
1t
0s
0r
1y
1c
0i
#8269288
0t
0s
0r
1y
1c
0i
#8269822
1t
0s
0r
1y
1c
0i
#8270317
0t
0s
0r
1y
1c
0i
#8270858
1t
0s
0r
1y
1c
0i
#8271320
0t
0s
0r
1y
1c
0i
#8271857
1t
0s
0r
1y
1c
0i
#8272359
0t
0s
0r
1y
1c
0i
#8272884
1t
0s
0r
1y
1c
0i
#8273366
0t
0s
0r
1y
1c
0i
#8273910
1t
0s
0r
1y
1c
0i
#8274397
0t
0s
0r
1y
1c
0i
#8274918
1t
0s
0r
1y
1c
1i
#8275400
0t
0s
0r
1y
1c
1i
#8275939
1t
0s
0r
1y
1c
1i
#8276439
0t
0s
0r
1y
1c
1i
#8276980
1t
0s
0r
1y
1c
1i
#8277454
0t
0s
0r
1y
1c
1i
#8277992
1t
0s
0r
1y
1c
1i
#8278484
0t
0s
0r
1y
0c
1i
#8279017
1t
0s
0r
1y
0c
1i
#8279520
0t
0s
0r
1y
0c
1i
#8280069
1t
0s
0r
1y
0c
0i
#8280542
0t
0s
0r
1y
0c
0i
#8281090
1t
0s
0r
1y
0c
0i
#8281582
0t
0s
0r
1y
0c
0i
#8282127
1t
0s
0r
1y
0c
0i
#8282623
0t
0s
0r
1y
0c
0i
#8283172
1t
0s
0r
1y
0c
0i
#8283660
0t
0s
0r
1y
0c
0i
#8284194
1t
0s
0r
1y
0c
0i
#8284685
0t
0s
0r
1y
0c
0i
#8285238
1t
0s
0r
1y
0c
0i
#8285732
0t
0s
0r
1y
0c
0i
#8286276
1t
0s
0r
1y
0c
0i
#8286761
0t
0s
0r
1y
0c
0i
#8287288
1t
0s
0r
1y
0c
0i
#8287402
1t
0s
1r
1y
0c
0i
#8287404
1t
0s
0r
1y
0c
0i
#8287777
0t
0s
0r
1y
0c
0i
#8288318
1t
0s
0r
1y
0c
0i
#8288805
0t
0s
0r
1y
0c
0i
#8289347
1t
0s
0r
1y
0c
0i
#8289821
0t
0s
0r
1y
0c
0i
#8290342
1t
0s
0r
1y
0c
0i
#8290822
0t
0s
0r
1y
0c
0i
#8291348
1t
0s
0r
1y
0c
0i
#8291825
0t
0s
0r
1y
0c
0i
#8292344
1t
0s
0r
1y
0c
0i
#8292819
0t
0s
0r
1y
0c
0i
#8293330
1t
0s
0r
1y
0c
0i
#8293800
0t
0s
0r
1y
0c
0i
#8294313
1t
0s
0r
1y
0c
0i
#8294794
0t
0s
0r
1y
0c
0i
#8295309
1t
0s
0r
1y
0c
0i
#8295773
0t
0s
0r
1y
0c
0i
#8296275
1t
0s
0r
1y
0c
0i
#8296745
0t
0s
0r
1y
0c
0i
#8297257
1t
0s
0r
1y
0c
0i
#8297730
0t
0s
0r
1y
0c
0i
#8298239
1t
0s
0r
1y
0c
0i
#8298708
0t
0s
0r
1y
0c
1i
#8299207
1t
0s
0r
1y
0c
1i
#8299683
0t
0s
0r
1y
0c
1i
#8300199
1t
0s
0r
1y
0c
1i
#8300674
0t
0s
0r
1y
0c
1i
#8301186
1t
0s
0r
1y
0c
1i
#8301659
0t
0s
0r
1y
0c
1i
#8302163
1t
0s
0r
1y
0c
1i
#8302639
0t
0s
0r
1y
1c
1i
#8303160
1t
0s
0r
1y
1c
1i
#8303641
0t
0s
0r
1y
1c
1i
#8304161
1t
0s
0r
1y
1c
0i
#8304638
0t
0s
0r
1y
1c
0i
#8305149
1t
0s
0r
1y
1c
0i
#8305622
0t
0s
0r
1y
1c
0i
#8306147
1t
0s
0r
1y
1c
0i
#8306627
0t
0s
0r
1y
1c
0i
#8307152
1t
0s
0r
1y
1c
0i
#8307626
0t
0s
0r
1y
1c
0i
#8308142
1t
0s
0r
1y
1c
0i
#8308614
0t
0s
0r
1y
1c
0i
#8309134
1t
0s
0r
1y
1c
0i
#8309614
0t
0s
0r
1y
1c
0i
#8310133
1t
0s
0r
1y
1c
0i
#8310601
0t
0s
0r
1y
1c
0i
#8311104
1t
0s
0r
1y
1c
0i
#8311571
0t
0s
0r
1y
1c
0i
#8312083
1t
0s
0r
1y
1c
0i
#8312547
0t
0s
0r
1y
1c
0i
#8313050
1t
0s
0r
1y
1c
0i
#8313504
0t
0s
0r
1y
1c
0i
#8313996
1t
0s
0r
1y
1c
0i
#8314451
0t
0s
0r
1y
1c
0i
#8314938
1t
0s
0r
1y
1c
0i
#8315386
0t
0s
0r
1y
1c
0i
#8315883
1t
0s
0r
1y
1c
0i
#8316326
0t
0s
0r
1y
1c
0i
#8316809
1t
0s
0r
1y
1c
0i
#8317256
0t
0s
0r
1y
1c
0i
#8317740
1t
0s
0r
1y
1c
0i
#8318191
0t
0s
0r
1y
1c
0i
#8318681
1t
0s
0r
1y
1c
0i
#8319123
0t
0s
0r
1y
1c
0i
#8319604
1t
0s
0r
1y
1c
0i
#8320054
0t
0s
0r
1y
1c
0i
#8320535
1t
0s
0r
1y
1c
0i
#8320972
0t
0s
0r
1y
1c
0i
#8321464
1t
0s
0r
1y
1c
0i
#8321900
0t
0s
0r
1y
1c
1i
#8322383
1t
0s
0r
1y
1c
1i
#8322833
0t
0s
0r
1y
1c
1i
#8323315
1t
0s
0r
1y
1c
1i
#8323771
0t
0s
0r
1y
1c
1i
#8324251
1t
0s
0r
1y
1c
1i
#8324676
0t
0s
0r
1y
1c
1i
#8325151
1t
0s
0r
1y
1c
1i
#8326584
0t
0s
0r
1y
1c
1i
#8327989
1t
0s
0r
1y
1c
0i
#8328427
0t
0s
0r
1y
1c
0i
#8328918
1t
0s
0r
1y
1c
0i
#8329375
0t
0s
0r
1y
1c
0i
#8329874
1t
0s
0r
1y
1c
0i
#8330302
0t
0s
0r
1y
1c
0i
#8330798
1t
0s
0r
1y
1c
0i
#8331264
0t
0s
0r
1y
1c
0i
#8331747
1t
0s
0r
1y
1c
0i
#8332194
0t
0s
0r
1y
1c
0i
#8332694
1t
0s
0r
1y
1c
0i
#8333143
0t
0s
0r
1y
1c
0i
#8333619
1t
0s
0r
1y
1c
0i
#8334062
0t
0s
0r
1y
1c
0i
#8334550
1t
0s
0r
1y
1c
0i
#8335005
0t
0s
0r
1y
1c
0i
#8335491
1t
0s
0r
1y
1c
0i
#8335918
0t
0s
0r
1y
1c
0i
#8336395
1t
0s
0r
1y
1c
0i
#8336833
0t
0s
0r
1y
1c
0i
#8337300
1t
0s
0r
1y
1c
0i
#8337744
0t
0s
0r
1y
1c
0i
#8338221
1t
0s
0r
1y
1c
0i
#8338636
0t
0s
0r
1y
1c
0i
#8339108
1t
0s
0r
1y
1c
0i
#8339536
0t
0s
0r
1y
1c
0i
#8340004
1t
0s
0r
1y
1c
0i
#8340433
0t
0s
0r
1y
1c
0i
#8340903
1t
0s
0r
1y
1c
0i
#8341324
0t
0s
0r
1y
1c
0i
#8341780
1t
0s
0r
1y
1c
0i
#8342204
0t
0s
0r
1y
1c
0i
#8342678
1t
0s
0r
1y
1c
0i
#8343105
0t
0s
0r
1y
1c
0i
#8343572
1t
0s
0r
1y
1c
0i
#8343993
0t
0s
0r
1y
1c
1i
#8344446
1t
0s
0r
1y
1c
1i
#8344873
0t
0s
0r
1y
1c
1i
#8345342
1t
0s
0r
1y
1c
1i
#8345770
0t
0s
0r
1y
1c
1i
#8346244
1t
0s
0r
1y
1c
1i
#8346664
0t
0s
0r
1y
1c
1i
#8347123
1t
0s
0r
1y
1c
1i
#8347552
0t
0s
0r
1y
1c
1i
#8348021
1t
0s
0r
1y
1c
1i
#8348452
0t
0s
0r
1y
1c
1i
#8348919
1t
0s
0r
1y
1c
1i
#8349351
0t
0s
0r
1y
1c
0i
#8349814
1t
0s
0r
1y
1c
0i
#8350245
0t
0s
0r
1y
1c
0i
#8350714
1t
0s
0r
1y
1c
0i
#8351157
0t
0s
0r
1y
1c
0i
#8351628
1t
0s
0r
1y
1c
0i
#8352057
0t
0s
0r
1y
1c
0i
#8352517
1t
0s
0r
1y
1c
0i
#8352951
0t
0s
0r
1y
1c
0i
#8353422
1t
0s
0r
1y
1c
0i
#8353858
0t
0s
0r
1y
1c
0i
#8354324
1t
0s
0r
1y
1c
0i
#8354755
0t
0s
0r
1y
1c
0i
#8355210
1t
0s
0r
1y
1c
0i
#8355646
0t
0s
0r
1y
1c
0i
#8356113
1t
0s
0r
1y
1c
0i
#8356546
0t
0s
0r
1y
1c
0i
#8357005
1t
0s
0r
1y
1c
0i
#8357432
0t
0s
0r
1y
1c
0i
#8357879
1t
0s
0r
1y
1c
0i
#8358304
0t
0s
0r
1y
1c
0i
#8358762
1t
0s
0r
1y
1c
0i
#8359187
0t
0s
0r
1y
1c
0i
#8359640
1t
0s
0r
1y
1c
0i
#8360058
0t
0s
0r
1y
1c
0i
#8360500
1t
0s
0r
1y
1c
0i
#8360912
0t
0s
0r
1y
1c
0i
#8361363
1t
0s
0r
1y
1c
0i
#8361779
0t
0s
0r
1y
1c
0i
#8362229
1t
0s
0r
1y
1c
0i
#8362639
0t
0s
0r
1y
1c
0i
#8363081
1t
0s
0r
1y
1c
0i
#8363489
0t
0s
0r
1y
1c
0i
#8363934
1t
0s
0r
1y
1c
0i
#8364350
0t
0s
0r
1y
1c
0i
#8364797
1t
0s
0r
1y
1c
0i
#8365205
0t
0s
0r
1y
1c
1i
#8365643
1t
0s
0r
1y
1c
1i
#8366055
0t
0s
0r
1y
1c
1i
#8366506
1t
0s
0r
1y
1c
1i
#8366922
0t
0s
0r
1y
1c
1i
#8367372
1t
0s
0r
1y
1c
1i
#8367783
0t
0s
0r
1y
1c
1i
#8368229
1t
0s
0r
1y
1c
1i
#8368645
0t
0s
0r
1y
1c
1i
#8369091
1t
0s
0r
1y
1c
1i
#8369505
0t
0s
0r
1y
1c
1i
#8369964
1t
0s
0r
1y
1c
0i
#8370377
0t
0s
0r
1y
1c
0i
#8370826
1t
0s
0r
1y
1c
0i
#8371244
0t
0s
0r
1y
1c
0i
#8371698
1t
0s
0r
1y
1c
0i
#8372122
0t
0s
0r
1y
1c
0i
#8372582
1t
0s
0r
1y
1c
0i
#8372999
0t
0s
0r
1y
1c
0i
#8373452
1t
0s
0r
1y
1c
0i
#8373876
0t
0s
0r
1y
1c
0i
#8374328
1t
0s
0r
1y
1c
0i
#8374740
0t
0s
0r
1y
1c
0i
#8375202
1t
0s
0r
1y
1c
0i
#8375611
0t
0s
0r
1y
1c
0i
#8376063
1t
0s
0r
1y
1c
0i
#8376484
0t
0s
0r
1y
1c
0i
#8376932
1t
0s
0r
1y
1c
0i
#8377358
0t
0s
0r
1y
1c
0i
#8377802
1t
0s
0r
1y
1c
0i
#8378196
0t
0s
0r
1y
1c
0i
#8378634
1t
0s
0r
1y
1c
0i
#8379951
0t
0s
0r
1y
1c
0i
#8381216
1t
0s
0r
1y
1c
0i
#8381610
0t
0s
0r
1y
1c
0i
#8382047
1t
0s
0r
1y
1c
0i
#8382458
0t
0s
0r
1y
1c
0i
#8382901
1t
0s
0r
1y
1c
0i
#8383284
0t
0s
0r
1y
1c
0i
#8383724
1t
0s
0r
1y
1c
0i
#8384140
0t
0s
0r
1y
1c
0i
#8384568
1t
0s
0r
1y
1c
0i
#8384967
0t
0s
0r
1y
1c
0i
#8385412
1t
0s
0r
1y
1c
1i
#8385815
0t
0s
0r
1y
1c
1i
#8386240
1t
0s
0r
1y
1c
1i
#8386639
0t
0s
0r
1y
1c
1i
#8387078
1t
0s
0r
1y
1c
1i
#8387492
0t
0s
0r
1y
1c
1i
#8387933
1t
0s
0r
1y
1c
1i
#8388326
0t
0s
0r
1y
1c
1i
#8388764
1t
0s
0r
1y
1c
1i
#8389171
0t
0s
0r
1y
1c
1i
#8389605
1t
0s
0r
1y
1c
1i
#8390021
0t
0s
0r
1y
1c
1i
#8390467
1t
0s
0r
1y
1c
0i
#8390859
0t
0s
0r
1y
1c
0i
#8391305
1t
0s
0r
1y
1c
0i
#8391712
0t
0s
0r
1y
1c
0i
#8392156
1t
0s
0r
1y
0c
0i
#8392566
0t
0s
0r
1y
0c
0i
#8393014
1t
0s
0r
1y
0c
0i
#8393417
0t
0s
0r
1y
0c
0i
#8393852
1t
0s
0r
1y
0c
0i
#8394258
0t
0s
0r
1y
0c
0i
#8394709
1t
0s
0r
1y
0c
0i
#8395118
0t
0s
0r
1y
0c
0i
#8395273
0t
0s
1r
1y
0c
0i
#8395276
0t
0s
0r
1y
0c
0i
#8395563
1t
0s
0r
1y
0c
0i
#8395965
0t
0s
0r
1y
0c
0i
#8396395
1t
0s
0r
1y
0c
0i
#8396802
0t
0s
0r
1y
0c
0i
#8397246
1t
0s
0r
1y
0c
0i
#8397652
0t
0s
0r
1y
0c
0i
#8398098
1t
0s
0r
1y
0c
0i
#8398496
0t
0s
0r
1y
0c
0i
#8398926
1t
0s
0r
1y
0c
0i
#8399331
0t
0s
0r
1y
0c
0i
#8399769
1t
0s
0r
1y
0c
0i
#8400174
0t
0s
0r
1y
0c
0i
#8400608
1t
0s
0r
1y
0c
0i
#8401013
0t
0s
0r
1y
0c
0i
#8401443
1t
0s
0r
1y
0c
0i
#8401845
0t
0s
0r
1y
0c
0i
#8402279
1t
0s
0r
1y
0c
0i
#8402692
0t
0s
0r
1y
0c
0i
#8403128
1t
0s
0r
1y
0c
0i
#8403528
0t
0s
0r
1y
0c
0i
#8403954
1t
0s
0r
1y
0c
0i
#8404359
0t
0s
0r
1y
0c
0i
#8404794
1t
0s
0r
1y
0c
0i
#8405202
0t
0s
0r
1y
0c
0i
#8405634
1t
0s
0r
1y
0c
1i
#8406038
0t
0s
0r
1y
0c
1i
#8406462
1t
0s
0r
1y
0c
1i
#8406873
0t
0s
0r
1y
0c
1i
#8407310
1t
0s
0r
1y
0c
1i
#8407720
0t
0s
0r
1y
0c
1i
#8408154
1t
0s
0r
1y
0c
1i
#8408561
0t
0s
0r
1y
0c
1i
#8408988
1t
0s
0r
1y
0c
1i
#8409397
0t
0s
0r
1y
0c
1i
#8409838
1t
0s
0r
1y
0c
1i
#8410251
0t
0s
0r
1y
0c
1i
#8410692
1t
0s
0r
1y
0c
0i
#8411101
0t
0s
0r
1y
0c
0i
#8411534
1t
0s
0r
1y
0c
0i
#8411939
0t
0s
0r
1y
0c
0i
#8412384
1t
0s
0r
1y
0c
0i
#8412796
0t
0s
0r
1y
1c
0i
#8413240
1t
0s
0r
1y
1c
0i
#8413647
0t
0s
0r
1y
1c
0i
#8414085
1t
0s
0r
1y
1c
0i
#8414489
0t
0s
0r
1y
1c
0i
#8414931
1t
0s
0r
1y
1c
0i
#8415343
0t
0s
0r
1y
1c
0i
#8415785
1t
0s
0r
1y
1c
0i
#8416189
0t
0s
0r
1y
1c
0i
#8416621
1t
0s
0r
1y
1c
0i
#8417028
0t
0s
0r
1y
1c
0i
#8417472
1t
0s
0r
1y
1c
0i
#8417882
0t
0s
0r
1y
1c
0i
#8418323
1t
0s
0r
1y
1c
0i
#8418726
0t
0s
0r
1y
1c
0i
#8419161
1t
0s
0r
1y
1c
0i
#8419567
0t
0s
0r
1y
1c
0i
#8420000
1t
0s
0r
1y
1c
0i
#8420402
0t
0s
0r
1y
1c
0i
#8420844
1t
0s
0r
1y
1c
0i
#8421243
0t
0s
0r
1y
1c
0i
#8421673
1t
0s
0r
1y
1c
0i
#8422075
0t
0s
0r
1y
1c
0i
#8422506
1t
0s
0r
1y
1c
0i
#8422912
0t
0s
0r
1y
1c
0i
#8423347
1t
0s
0r
1y
1c
0i
#8423744
0t
0s
0r
1y
1c
0i
#8424172
1t
0s
0r
1y
1c
0i
#8424575
0t
0s
0r
1y
1c
0i
#8425001
1t
0s
0r
1y
1c
0i
#8425393
0t
0s
0r
1y
1c
0i
#8425829
1t
0s
0r
1y
1c
1i
#8426220
0t
0s
0r
1y
1c
1i
#8426648
1t
0s
0r
1y
1c
1i
#8427049
0t
0s
0r
1y
1c
1i
#8427476
1t
0s
0r
1y
1c
1i
#8427884
0t
0s
0r
1y
1c
1i
#8428307
1t
0s
0r
1y
1c
1i
#8428687
0t
0s
0r
1y
1c
1i
#8429107
1t
0s
0r
1y
1c
1i
#8430385
0t
0s
0r
1y
1c
1i
#8431623
1t
0s
0r
1y
1c
0i
#8432012
0t
0s
0r
1y
1c
0i
#8432445
1t
0s
0r
1y
1c
0i
#8432852
0t
0s
0r
1y
1c
0i
#8433292
1t
0s
0r
1y
1c
0i
#8433673
0t
0s
0r
1y
1c
0i
#8434111
1t
0s
0r
1y
1c
0i
#8434527
0t
0s
0r
1y
1c
0i
#8434953
1t
0s
0r
1y
1c
0i
#8435352
0t
0s
0r
1y
1c
0i
#8435794
1t
0s
0r
1y
1c
0i
#8436196
0t
0s
0r
1y
1c
0i
#8436619
1t
0s
0r
1y
1c
0i
#8437016
0t
0s
0r
1y
1c
0i
#8437451
1t
0s
0r
1y
1c
0i
#8437861
0t
0s
0r
1y
1c
0i
#8438297
1t
0s
0r
1y
1c
0i
#8438685
0t
0s
0r
1y
1c
0i
#8439116
1t
0s
0r
1y
1c
0i
#8439517
0t
0s
0r
1y
1c
0i
#8439941
1t
0s
0r
1y
1c
0i
#8440349
0t
0s
0r
1y
1c
0i
#8440784
1t
0s
0r
1y
1c
0i
#8441165
0t
0s
0r
1y
1c
0i
#8441598
1t
0s
0r
1y
1c
0i
#8441992
0t
0s
0r
1y
1c
0i
#8442421
1t
0s
0r
1y
1c
0i
#8442817
0t
0s
0r
1y
1c
0i
#8443247
1t
0s
0r
1y
1c
0i
#8443635
0t
0s
0r
1y
1c
0i
#8444052
1t
0s
0r
1y
1c
0i
#8444442
0t
0s
0r
1y
1c
0i
#8444874
1t
0s
0r
1y
1c
0i
#8445267
0t
0s
0r
1y
1c
0i
#8445693
1t
0s
0r
1y
1c
1i
#8446079
0t
0s
0r
1y
1c
1i
#8446492
1t
0s
0r
1y
1c
1i
#8446885
0t
0s
0r
1y
1c
1i
#8447312
1t
0s
0r
1y
1c
1i
#8447704
0t
0s
0r
1y
1c
1i
#8448135
1t
0s
0r
1y
1c
1i
#8448521
0t
0s
0r
1y
1c
1i
#8448938
1t
0s
0r
1y
1c
1i
#8449331
0t
0s
0r
1y
1c
1i
#8449757
1t
0s
0r
1y
1c
1i
#8450152
0t
0s
0r
1y
1c
1i
#8450575
1t
0s
0r
1y
1c
0i
#8450971
0t
0s
0r
1y
1c
0i
#8451392
1t
0s
0r
1y
1c
0i
#8451786
0t
0s
0r
1y
1c
0i
#8452211
1t
0s
0r
1y
1c
0i
#8452617
0t
0s
0r
1y
1c
0i
#8453045
1t
0s
0r
1y
1c
0i
#8453439
0t
0s
0r
1y
1c
0i
#8453856
1t
0s
0r
1y
1c
0i
#8454255
0t
0s
0r
1y
1c
0i
#8454682
1t
0s
0r
1y
1c
0i
#8455083
0t
0s
0r
1y
1c
0i
#8455507
1t
0s
0r
1y
1c
0i
#8455904
0t
0s
0r
1y
1c
0i
#8456319
1t
0s
0r
1y
1c
0i
#8456721
0t
0s
0r
1y
1c
0i
#8457149
1t
0s
0r
1y
1c
0i
#8457549
0t
0s
0r
1y
1c
0i
#8457972
1t
0s
0r
1y
1c
0i
#8458369
0t
0s
0r
1y
1c
0i
#8458784
1t
0s
0r
1y
1c
0i
#8459181
0t
0s
0r
1y
1c
0i
#8459607
1t
0s
0r
1y
1c
0i
#8460006
0t
0s
0r
1y
1c
0i
#8460430
1t
0s
0r
1y
1c
0i
#8460824
0t
0s
0r
1y
1c
0i
#8461238
1t
0s
0r
1y
1c
0i
#8461627
0t
0s
0r
1y
1c
0i
#8462051
1t
0s
0r
1y
1c
0i
#8462444
0t
0s
0r
1y
1c
0i
#8462865
1t
0s
0r
1y
1c
0i
#8463252
0t
0s
0r
1y
1c
0i
#8463667
1t
0s
0r
1y
1c
0i
#8464051
0t
0s
0r
1y
1c
0i
#8464468
1t
0s
0r
1y
1c
0i
#8464860
0t
0s
0r
1y
1c
0i
#8465278
1t
0s
0r
1y
1c
0i
#8465662
0t
0s
0r
1y
1c
1i
#8466071
1t
0s
0r
1y
1c
1i
#8466458
0t
0s
0r
1y
1c
1i
#8466879
1t
0s
0r
1y
1c
1i
#8467270
0t
0s
0r
1y
1c
1i
#8467690
1t
0s
0r
1y
1c
1i
#8468076
0t
0s
0r
1y
1c
1i
#8468492
1t
0s
0r
1y
1c
1i
#8468882
0t
0s
0r
1y
1c
1i
#8469298
1t
0s
0r
1y
1c
1i
#8469687
0t
0s
0r
1y
1c
1i
#8470115
1t
0s
0r
1y
1c
0i
#8470502
0t
0s
0r
1y
1c
0i
#8470921
1t
0s
0r
1y
1c
0i
#8471313
0t
0s
0r
1y
1c
0i
#8471736
1t
0s
0r
1y
1c
0i
#8472134
0t
0s
0r
1y
1c
0i
#8472564
1t
0s
0r
1y
1c
0i
#8472955
0t
0s
0r
1y
1c
0i
#8473378
1t
0s
0r
1y
1c
0i
#8473776
0t
0s
0r
1y
1c
0i
#8474198
1t
0s
0r
1y
1c
0i
#8474586
0t
0s
0r
1y
1c
0i
#8475018
1t
0s
0r
1y
1c
0i
#8475404
0t
0s
0r
1y
1c
0i
#8475827
1t
0s
0r
1y
1c
0i
#8476223
0t
0s
0r
1y
1c
0i
#8476644
1t
0s
0r
1y
1c
0i
#8477046
0t
0s
0r
1y
1c
0i
#8477462
1t
0s
0r
1y
1c
0i
#8477836
0t
0s
0r
1y
1c
0i
#8478248
1t
0s
0r
1y
1c
0i
#8479494
0t
0s
0r
1y
1c
0i
#8480700
1t
0s
0r
1y
1c
0i
#8481077
0t
0s
0r
1y
1c
0i
#8481495
1t
0s
0r
1y
1c
0i
#8481889
0t
0s
0r
1y
1c
0i
#8482314
1t
0s
0r
1y
1c
0i
#8482682
0t
0s
0r
1y
1c
0i
#8483104
1t
0s
0r
1y
1c
0i
#8483506
0t
0s
0r
1y
1c
0i
#8483915
1t
0s
0r
1y
1c
1i
#8484301
0t
0s
0r
1y
1c
1i
#8484727
1t
0s
0r
1y
1c
1i
#8485115
0t
0s
0r
1y
1c
1i
#8485522
1t
0s
0r
1y
1c
1i
#8485906
0t
0s
0r
1y
1c
1i
#8486327
1t
0s
0r
1y
1c
1i
#8486725
0t
0s
0r
1y
1c
1i
#8487146
1t
0s
0r
1y
1c
1i
#8487523
0t
0s
0r
1y
1c
0i
#8487943
1t
0s
0r
1y
1c
0i
#8488333
0t
0s
0r
1y
1c
0i
#8488747
1t
0s
0r
1y
1c
0i
#8489147
0t
0s
0r
1y
1c
0i
#8489574
1t
0s
0r
1y
1c
0i
#8489949
0t
0s
0r
1y
1c
0i
#8490376
1t
0s
0r
1y
1c
0i
#8490766
0t
0s
0r
1y
1c
0i
#8491190
1t
0s
0r
1y
0c
0i
#8491583
0t
0s
0r
1y
0c
0i
#8492010
1t
0s
0r
1y
0c
0i
#8492397
0t
0s
0r
1y
0c
0i
#8492812
1t
0s
0r
1y
0c
0i
#8493145
1t
0s
1r
1y
0c
0i
#8493147
1t
0s
0r
1y
0c
0i
#8493202
0t
0s
0r
1y
0c
0i
#8493634
1t
0s
0r
1y
0c
0i
#8494027
0t
0s
0r
1y
0c
0i
#8494452
1t
0s
0r
1y
0c
0i
#8494838
0t
0s
0r
1y
0c
0i
#8495250
1t
0s
0r
1y
0c
0i
#8495642
0t
0s
0r
1y
0c
0i
#8496067
1t
0s
0r
1y
0c
0i
#8496458
0t
0s
0r
1y
0c
0i
#8496887
1t
0s
0r
1y
0c
0i
#8497269
0t
0s
0r
1y
0c
0i
#8497683
1t
0s
0r
1y
0c
0i
#8498072
0t
0s
0r
1y
0c
0i
#8498493
1t
0s
0r
1y
0c
0i
#8498883
0t
0s
0r
1y
0c
0i
#8499299
1t
0s
0r
1y
0c
0i
#8499689
0t
0s
0r
1y
0c
0i
#8500101
1t
0s
0r
1y
0c
0i
#8500488
0t
0s
0r
1y
0c
0i
#8500904
1t
0s
0r
1y
0c
0i
#8501301
0t
0s
0r
1y
0c
0i
#8501719
1t
0s
0r
1y
0c
0i
#8502104
0t
0s
0r
1y
0c
0i
#8502511
1t
0s
0r
1y
0c
0i
#8502900
0t
0s
0r
1y
0c
0i
#8503317
1t
0s
0r
1y
0c
1i
#8503708
0t
0s
0r
1y
0c
1i
#8504122
1t
0s
0r
1y
0c
1i
#8504510
0t
0s
0r
1y
0c
1i
#8504915
1t
0s
0r
1y
0c
1i
#8505309
0t
0s
0r
1y
0c
1i
#8505728
1t
0s
0r
1y
0c
1i
#8506121
0t
0s
0r
1y
0c
1i
#8506535
1t
0s
0r
1y
0c
1i
#8506926
0t
0s
0r
1y
0c
0i
#8507334
1t
0s
0r
1y
0c
0i
#8507726
0t
0s
0r
1y
0c
0i
#8508147
1t
0s
0r
1y
0c
0i
#8508544
0t
0s
0r
1y
0c
0i
#8508964
1t
0s
0r
1y
0c
0i
#8509357
0t
0s
0r
1y
0c
0i
#8509771
1t
0s
0r
1y
0c
0i
#8510160
0t
0s
0r
1y
0c
0i
#8510585
1t
0s
0r
1y
1c
0i
#8510980
0t
0s
0r
1y
1c
0i
#8511404
1t
0s
0r
1y
1c
0i
#8511795
0t
0s
0r
1y
1c
0i
#8512213
1t
0s
0r
1y
1c
0i
